<svg xmlns="http://www.w3.org/2000/svg" width="21" height="13" viewBox="0 0 21 13">
    <g fill="none" fill-rule="evenodd">
        <path d="M-2-6h24v24H-2z"/>
        <path fill="#FF438C" fill-rule="nonzero" stroke="#FF438C" d="M10.351 10.244l8.114-9.006a.72.72 0 1 1 1.07.964l-8.65 9.6a.72.72 0 0 1-1.07 0l-8.63-9.6a.72.72 0 0 1 1.07-.963l8.096 9.005z"/>
    </g>
</svg>
