<svg xmlns="http://www.w3.org/2000/svg" width="19" height="11" viewBox="0 0 19 11">
    <g fill="none" fill-rule="evenodd">
        <path d="M-3-7h24v24H-3z"/>
        <path fill="#FFF" fill-rule="nonzero" d="M9.351 9.244L17.465.238a.72.72 0 1 1 1.07.964l-8.65 9.6a.72.72 0 0 1-1.07 0l-8.63-9.6a.72.72 0 0 1 1.07-.963l8.096 9.005z"/>
    </g>
</svg>
